[gd_scene load_steps=5 format=2]

[ext_resource path="res://Scenes/door.tscn" type="PackedScene" id=1]
[ext_resource path="res://Assets/cenario.png" type="Texture" id=2]
[ext_resource path="res://Scenes/player.tscn" type="PackedScene" id=3]
[ext_resource path="res://Scenes/key.tscn" type="PackedScene" id=4]

[node name="scenario" type="Node2D"]

[node name="sprite" type="Sprite" parent="."]
position = Vector2( 1.49829, 1.49832 )
texture = ExtResource( 2 )
centered = false
__meta__ = {
"_edit_lock_": true
}

[node name="key" parent="." instance=ExtResource( 4 )]

[node name="door" parent="." instance=ExtResource( 1 )]
position = Vector2( 130.077, 354.695 )

[node name="door2" parent="." instance=ExtResource( 1 )]
position = Vector2( 130.716, 67.1521 )

[node name="player" parent="." instance=ExtResource( 3 )]
speed = 150

[node name="StaticBody2D" type="StaticBody2D" parent="."]

[node name="CollisionPolygon2D2" type="CollisionPolygon2D" parent="StaticBody2D"]
polygon = PoolVector2Array( 58.5174, 87.657, 114.079, 87.657, 114.079, 46.1259, 146.069, 46.6871, 146.069, 86.5345, 199.386, 85.9733, 201.631, 231.332, 289.745, 231.893, 289.745, -0.456295, 0.710632, -0.456295, 0.710632, 231.893, 59.6399, 231.893 )

[node name="CollisionPolygon2D" type="CollisionPolygon2D" parent="StaticBody2D"]
rotation = -0.261799
polygon = PoolVector2Array( -89.8927, 561.495, -44.4875, 573.789, -57.8122, 621.349, 36.5145, 646.624, 22.7929, 693.497, 303.063, 768.595, 376.244, 488.973, 44.8707, 400.763, 81.7545, 262.874, 465.991, 364.424, 341.184, 838.789, -184.55, 696.823, -59.0831, 224.548, 49.2743, 253.76, 12.3731, 393.011, -39.4808, 378.674 )
